﻿@startuml

class Attack{
currentBehavior
ChangeAttack()
}

abstract class AttackBehavior{
PerformAttack()
}
Attack --> AttackBehavior

NormalAttack -up-|> AttackBehavior
RangeAttack -up-|> AttackBehavior
MagicAttack -up-|> AttackBehavior
ElementalAttack -up-|> AttackBehavior
@enduml